Ciência de Dados
…
Fix types and labels

titanic <- titanic |>
  mutate(Sex = as.factor(Sex),
         Pclass = factor(Pclass,
                         labels = c("1st", "2nd", "3rd")),
         Survived = factor(Survived, 
                           labels = c("No", "Yes")),
         Embarked = fct_recode(Embarked, 
                               "Cherbourg" = "C", 
                               "Queenstown" = "Q",
                               "Southampton" = "S"))
titanic %>% select(Sex, Survived, Embarked)

# A tibble: 891 × 3
   Sex    Survived Embarked   
   <fct>  <fct>    <fct>      
 1 male   No       Southampton
 2 female Yes      Cherbourg  
 3 female Yes      Southampton
 4 female Yes      Southampton
 5 male   No       Southampton
 6 male   No       Queenstown 
 7 male   No       Southampton
 8 male   No       Southampton
 9 female Yes      Southampton
10 female Yes      Cherbourg  
# ℹ 881 more rows
…
